﻿@smCastleX = 0.27
@smCastleY = 0.23
@smLysX = 0.23
@smLysY = 0.26
@smCross = 0.22

k_fashion = {
	pattern = "pattern_solid.dds"
	color1 = "purple"
	color2 = "purple"
	colored_emblem = {
		texture = "ce_peacock.dds"
		color1 = "yellow"
		color2 = "red"
		instance = { position = { 0.5 0.45 } scale = { 0.8 0.8 }  }
	}
}