﻿object={
	name="env_coast_foam_l"
	render_pass=MapUnderWater
	clamp_to_water_level=yes
	generated_content=no
	layer="coast_foam_layer"
	entity="env_coast_foam_l"
	count=104
	transform="374.032196 0.000000 1215.738281 0.000000 0.926594 0.000000 0.376063 1.000000 1.000000 1.000000
2407.550781 0.000000 3955.712646 0.000000 0.976551 0.000000 -0.215286 1.000000 1.000000 1.000000
2457.062256 0.000000 3927.631348 0.000000 0.962434 0.000000 -0.271516 1.000000 1.000000 1.000000
2496.021484 0.000000 3911.830811 0.000000 0.972984 0.000000 -0.230874 1.000000 1.000000 1.000000
2543.003662 0.000000 3857.454102 0.000000 -0.786556 0.000000 0.617519 1.000000 1.000000 1.000000
2538.271240 0.000000 3826.964844 0.000000 0.551600 0.000000 -0.834109 1.000000 1.000000 1.000000
2509.348633 0.000000 3785.509277 0.000000 -0.259861 0.000000 0.965646 1.000000 1.000000 1.000000
2544.650879 0.000000 3718.447510 0.000000 0.382515 0.000000 0.923949 1.000000 1.000000 1.000000
2526.545898 0.000000 3754.590820 0.000000 0.759741 0.000000 0.650226 1.000000 1.000000 1.000000
229.664749 0.000000 3827.883057 0.000000 0.090659 0.000000 0.995882 1.000000 1.000000 1.000000
255.106247 0.000000 3808.201660 0.000000 0.492008 0.000000 0.870591 1.000000 1.000000 1.000000
273.623596 0.000000 3789.852051 0.000000 0.286870 0.000000 0.957969 1.000000 1.000000 1.000000
305.212433 0.000000 3776.104248 0.000000 0.055814 0.000000 0.998441 1.000000 1.000000 1.000000
341.306335 0.000000 3784.115723 0.000000 -0.255243 0.000000 0.966877 1.000000 1.000000 1.000000
395.256439 0.000000 3799.062988 0.000000 -0.316362 0.000000 0.948639 1.000000 1.000000 1.000000
216.270355 0.000000 1067.690430 0.000000 0.819058 0.000000 0.573711 1.000000 1.000000 1.000000
256.750946 0.000000 1119.856323 0.000000 0.959576 0.000000 0.281450 1.000000 1.000000 1.000000
277.937225 0.000000 1155.586792 0.000000 -0.835402 0.000000 -0.549640 1.000000 1.000000 1.000000
320.326019 0.000000 1194.844849 0.000000 0.998854 0.000000 0.047863 1.000000 1.000000 1.000000
109.993187 0.000000 868.588806 0.000000 0.773062 0.000000 0.634330 1.000000 1.000000 1.000000
3628.786865 0.000000 182.401566 0.000000 -0.412226 0.000000 0.911081 1.000000 1.000000 1.000000
3613.851807 0.000000 163.905991 0.000000 -0.412226 0.000000 0.911081 1.000000 1.000000 1.000000
3599.320801 0.000000 147.919724 0.000000 -0.412226 0.000000 0.911081 1.000000 1.000000 1.000000
3586.049805 0.000000 132.486572 0.000000 -0.412226 0.000000 0.911081 1.000000 1.000000 1.000000
3571.906982 0.000000 115.157196 0.000000 -0.412226 0.000000 0.911081 1.000000 1.000000 1.000000
3553.591797 0.000000 93.487686 0.000000 -0.412226 0.000000 0.911081 1.000000 1.000000 1.000000
3536.115234 0.000000 72.078560 0.000000 -0.412226 0.000000 0.911081 1.000000 1.000000 1.000000
3696.333984 0.000000 455.652771 0.000000 0.991323 0.000000 0.131450 1.000000 1.000000 1.000000
3171.598389 0.000000 683.647644 0.000000 -0.780870 0.000000 0.624694 1.000000 1.000000 1.000000
3162.275391 0.000000 713.473572 0.000000 -0.812499 0.000000 0.582963 1.000000 1.000000 1.000000
3148.488281 0.000000 741.332092 0.000000 -0.869203 0.000000 0.494455 1.000000 1.000000 1.000000
3053.298096 0.000000 906.444214 0.000000 -0.926337 0.000000 0.376695 1.000000 1.000000 1.000000
2557.250732 0.000000 1309.519531 0.000000 -0.999502 0.000000 0.031545 1.000000 1.000000 1.000000
2526.334961 0.000000 1318.286987 0.000000 0.998298 0.000000 -0.058321 1.000000 1.000000 1.000000
2500.989746 0.000000 1320.882324 0.000000 0.999050 0.000000 -0.043570 1.000000 1.000000 1.000000
1931.767212 0.000000 1273.153198 0.000000 -0.999368 0.000000 0.035541 1.000000 1.000000 1.000000
1912.378174 0.000000 1277.090210 0.000000 -0.990546 0.000000 0.137181 1.000000 1.000000 1.000000
1950.994873 0.000000 1272.693970 0.000000 -0.999630 0.000000 0.027214 1.000000 1.000000 1.000000
1976.615845 0.000000 1270.296021 0.000000 -0.995510 0.000000 0.094656 1.000000 1.000000 1.000000
138.877609 0.000000 633.316162 0.000000 0.693679 0.000000 0.720284 1.000000 1.000000 1.000000
146.848907 0.000000 666.220581 0.000000 0.863993 0.000000 0.503505 1.000000 1.000000 1.000000
140.299179 0.000000 453.497131 0.000000 0.349338 0.000000 0.936997 1.000000 1.000000 1.000000
376.698730 0.000000 200.414810 0.000000 0.137211 0.000000 0.990542 1.000000 1.000000 1.000000
397.097778 0.000000 193.281616 0.000000 0.187164 0.000000 0.982329 1.000000 1.000000 1.000000
418.581970 0.000000 183.210144 0.000000 0.249617 0.000000 0.968345 1.000000 1.000000 1.000000
1482.416870 0.000000 40.834999 0.000000 0.435636 0.000000 0.900123 1.000000 1.000000 1.000000
1466.533936 0.000000 65.907768 0.000000 0.399802 0.000000 0.916602 1.000000 1.000000 1.000000
1441.156494 0.000000 101.991821 0.000000 0.461857 0.000000 0.886955 1.000000 1.000000 1.000000
1423.942871 0.000000 127.852051 0.000000 0.325704 0.000000 0.945472 1.000000 1.000000 1.000000
1300.997803 0.000000 141.518326 0.000000 -0.012619 0.000000 0.999920 1.000000 1.000000 1.000000
1323.330078 0.000000 143.098709 0.000000 0.001755 0.000000 0.999998 1.000000 1.000000 1.000000
1347.202881 0.000000 142.993301 0.000000 0.051262 0.000000 0.998685 1.000000 1.000000 1.000000
1118.656006 0.000000 97.552269 0.000000 -0.248749 0.000000 0.968568 1.000000 1.000000 1.000000
1094.248291 0.000000 86.796631 0.000000 -0.118980 0.000000 0.992897 1.000000 1.000000 1.000000
1034.340942 0.000000 68.731689 0.000000 -0.182699 0.000000 0.983169 1.000000 1.000000 1.000000
988.533630 0.000000 76.508362 0.000000 0.077947 0.000000 0.996958 1.000000 1.000000 1.000000
958.723511 0.000000 82.027527 0.000000 0.032747 0.000000 0.999464 1.000000 1.000000 1.000000
884.003479 0.000000 88.386490 0.000000 -0.062513 0.000000 0.998044 1.000000 1.000000 1.000000
854.937866 0.000000 86.576515 0.000000 -0.071586 0.000000 0.997434 1.000000 1.000000 1.000000
820.530090 0.000000 84.998817 0.000000 -0.060114 0.000000 0.998192 1.000000 1.000000 1.000000
789.459656 0.000000 80.592934 0.000000 -0.097220 0.000000 0.995263 1.000000 1.000000 1.000000
550.268799 0.000000 100.025345 0.000000 0.334066 0.000000 0.942550 1.000000 1.000000 1.000000
588.223389 0.000000 77.482521 0.000000 0.228783 0.000000 0.973477 1.000000 1.000000 1.000000
628.177612 0.000000 59.427475 0.000000 0.157529 0.000000 0.987514 1.000000 1.000000 1.000000
691.502441 0.000000 52.276089 0.000000 -0.205959 0.000000 0.978561 1.000000 1.000000 1.000000
710.910278 0.000000 60.394974 0.000000 -0.222488 0.000000 0.974936 1.000000 1.000000 1.000000
3143.791504 0.000000 953.657776 0.000000 0.751647 0.000000 0.659566 1.000000 1.000000 1.000000
3147.376465 0.000000 923.272827 0.000000 0.623863 0.000000 0.781534 1.000000 1.000000 1.000000
3167.960205 0.000000 882.778564 0.000000 0.416975 0.000000 0.908918 1.000000 1.000000 1.000000
3284.593018 0.000000 760.753723 0.000000 0.437393 0.000000 0.899270 1.000000 1.000000 1.000000
3301.532959 0.000000 745.926636 0.000000 0.353574 0.000000 0.935407 1.000000 1.000000 1.000000
3420.171143 0.000000 502.415985 0.000000 -0.011780 0.000000 0.999931 1.000000 1.000000 1.000000
3507.849365 0.000000 538.692810 0.000000 -0.098230 0.000000 0.995164 1.000000 1.000000 1.000000
3567.171875 0.000000 548.767456 0.000000 -0.133511 0.000000 0.991047 1.000000 1.000000 1.000000
3596.408203 0.000000 566.153381 0.000000 -0.178062 0.000000 0.984019 1.000000 1.000000 1.000000
3618.652344 0.000000 567.670044 0.000000 -0.010376 0.000000 0.999946 1.000000 1.000000 1.000000
3666.772461 0.000000 600.538086 0.000000 -0.216861 0.000000 0.976203 1.000000 1.000000 1.000000
3689.962402 0.000000 612.186523 0.000000 -0.196617 0.000000 0.980480 1.000000 1.000000 1.000000
3729.803711 0.000000 626.242126 0.000000 -0.169917 0.000000 0.985458 1.000000 1.000000 1.000000
3749.666016 0.000000 633.289856 0.000000 -0.177911 0.000000 0.984047 1.000000 1.000000 1.000000
3768.423340 0.000000 640.678284 0.000000 -0.163960 0.000000 0.986467 1.000000 1.000000 1.000000
3898.136719 0.000000 732.106628 0.000000 -0.081513 0.000000 0.996672 1.000000 1.000000 1.000000
3878.611816 0.000000 725.084167 0.000000 -0.206750 0.000000 0.978394 1.000000 1.000000 1.000000
3857.694580 0.000000 718.304565 0.000000 -0.161912 0.000000 0.986805 1.000000 1.000000 1.000000
3840.349609 0.000000 711.163330 0.000000 -0.161912 0.000000 0.986805 1.000000 1.000000 1.000000
4136.067383 0.000000 1055.259766 0.000000 -0.931844 0.000000 0.362858 1.000000 1.000000 1.000000
4123.583496 0.000000 1069.093262 0.000000 -0.921338 0.000000 0.388762 1.000000 1.000000 1.000000
4106.706543 0.000000 1086.857422 0.000000 -0.910643 0.000000 0.413195 1.000000 1.000000 1.000000
4338.579590 0.000000 1211.065063 0.000000 -0.086257 0.000000 0.996273 1.000000 1.000000 1.000000
4364.635254 0.000000 1209.448242 0.000000 0.006775 0.000000 0.999977 1.000000 1.000000 1.000000
4396.629395 0.000000 1215.952637 0.000000 -0.044846 0.000000 0.998994 1.000000 1.000000 1.000000
4418.522461 0.000000 1220.333374 0.000000 -0.099141 0.000000 0.995073 1.000000 1.000000 1.000000
4443.162109 0.000000 1226.279907 0.000000 -0.156640 0.000000 0.987656 1.000000 1.000000 1.000000
5067.140137 0.000000 454.834045 0.000000 0.576252 0.000000 0.817272 1.000000 1.000000 1.000000
5074.450684 0.000000 436.815674 0.000000 0.554404 0.000000 0.832248 1.000000 1.000000 1.000000
5103.180664 0.000000 389.959595 0.000000 0.377886 0.000000 0.925852 1.000000 1.000000 1.000000
5118.737793 0.000000 375.258453 0.000000 0.345625 0.000000 0.938373 1.000000 1.000000 1.000000
5134.185547 0.000000 363.854187 0.000000 0.255084 0.000000 0.966919 1.000000 1.000000 1.000000
5167.901855 0.000000 365.265259 0.000000 -0.268279 0.000000 0.963341 1.000000 1.000000 1.000000
5292.310059 0.000000 328.506653 0.000000 0.633002 0.000000 0.774150 1.000000 1.000000 1.000000
5297.874023 0.000000 304.403900 0.000000 0.580981 0.000000 0.813917 1.000000 1.000000 1.000000
5308.645020 0.000000 281.070831 0.000000 0.520959 0.000000 0.853582 1.000000 1.000000 1.000000
5333.065918 0.000000 259.730072 0.000000 0.118132 0.000000 0.992998 1.000000 1.000000 1.000000
5359.840820 0.000000 263.666077 0.000000 -0.212718 0.000000 0.977114 1.000000 1.000000 1.000000
"}
object={
	name="env_coast_foam_m"
	render_pass=MapUnderWater
	clamp_to_water_level=yes
	generated_content=no
	layer="coast_foam_layer"
	entity="env_coast_foam_m"
	count=25
	transform="454.053741 0.000000 1313.536987 0.000000 0.533880 0.000000 0.845560 1.000000 1.000000 1.000000
445.182495 0.000000 1325.966187 0.000000 0.391197 0.000000 0.920307 1.000000 1.000000 1.000000
440.648346 0.000000 1345.036987 0.000000 0.719007 0.000000 0.695003 1.000000 1.000000 1.000000
211.339035 0.000000 3832.990723 0.000000 0.136639 0.000000 0.990621 1.000000 1.000000 1.000000
417.381805 0.000000 3809.075684 0.000000 -0.148553 0.000000 0.988904 1.000000 1.000000 1.000000
457.278870 0.000000 3815.006592 0.000000 -0.305576 0.000000 0.952168 1.000000 1.000000 1.000000
493.013153 0.000000 3838.235352 0.000000 -0.220215 0.000000 0.975451 1.000000 1.000000 1.000000
519.380371 0.000000 3898.058350 0.000000 -0.963176 0.000000 0.268870 1.000000 1.000000 1.000000
503.431427 0.000000 3943.850830 0.000000 -0.081358 0.000000 0.996685 1.000000 1.000000 1.000000
482.799622 0.000000 3948.879639 0.000000 0.996367 0.000000 0.085166 1.000000 1.000000 1.000000
444.140503 0.000000 3958.885986 0.000000 0.776064 0.000000 0.630654 1.000000 1.000000 1.000000
413.720398 0.000000 3948.701416 0.000000 0.940210 0.000000 0.340594 1.000000 1.000000 1.000000
317.451965 0.000000 3948.637207 0.000000 0.798478 0.000000 0.602024 1.000000 1.000000 1.000000
288.536652 0.000000 3985.506592 0.000000 -0.894699 0.000000 0.446669 1.000000 1.000000 1.000000
3678.858398 0.000000 252.886368 0.000000 -0.475806 0.000000 0.879550 1.000000 1.000000 1.000000
3688.323242 0.000000 264.373322 0.000000 -0.345540 0.000000 0.938404 1.000000 1.000000 1.000000
3677.833496 0.000000 449.488007 0.000000 -0.981626 0.000000 -0.190813 1.000000 1.000000 1.000000
3366.111328 0.000000 463.425537 0.000000 -0.170759 0.000000 0.985313 1.000000 1.000000 1.000000
3380.851562 0.000000 471.617310 0.000000 -0.242522 0.000000 0.970146 1.000000 1.000000 1.000000
3385.475830 0.000000 493.082886 0.000000 -0.800355 0.000000 0.599527 1.000000 1.000000 1.000000
3351.479492 0.000000 620.485535 0.000000 0.467518 0.000000 0.883984 1.000000 1.000000 1.000000
3914.215576 0.000000 734.765198 0.000000 0.000000 0.000000 1.000000 1.000000 1.000000 1.000000
4466.993652 0.000000 1230.062500 0.000000 0.122615 0.000000 0.992454 1.000000 1.000000 1.000000
4477.253906 0.000000 1225.204468 0.000000 0.329251 0.000000 0.944242 1.000000 1.000000 1.000000
5182.857910 0.000000 375.625641 0.000000 -0.350661 0.000000 0.936503 1.000000 1.000000 1.000000
"}
object={
	name="env_coast_foam_s"
	render_pass=MapUnderWater
	clamp_to_water_level=yes
	generated_content=no
	layer="coast_foam_layer"
	entity="env_coast_foam_s"
	count=24
	transform="1984.435547 0.000000 4042.825195 0.000000 -0.998080 0.000000 -0.061931 1.000000 1.000000 1.000000
2010.607422 0.000000 4048.708496 0.000000 0.988943 0.000000 0.148296 1.000000 1.000000 1.000000
2047.375610 0.000000 4043.534424 0.000000 0.987478 0.000000 -0.157759 1.000000 1.000000 1.000000
2101.378906 0.000000 4028.997803 0.000000 0.913917 0.000000 0.405901 1.000000 1.000000 1.000000
2120.113281 0.000000 4051.153564 0.000000 0.933277 0.000000 0.359159 1.000000 1.000000 1.000000
2151.339355 0.000000 4039.049805 0.000000 0.855581 0.000000 0.517669 1.000000 1.000000 1.000000
2142.250488 0.000000 4050.767822 0.000000 0.714358 0.000000 -0.699780 1.000000 1.000000 1.000000
2194.503906 0.000000 4058.463135 0.000000 -0.999806 0.000000 0.019709 1.000000 1.000000 1.000000
2225.242432 0.000000 4001.717285 0.000000 -0.996022 0.000000 0.089111 1.000000 1.000000 1.000000
2254.485596 0.000000 3993.690430 0.000000 0.985400 0.000000 -0.170253 1.000000 1.000000 1.000000
2339.191406 0.000000 3974.158936 0.000000 0.994678 0.000000 -0.103032 1.000000 1.000000 1.000000
244.537857 0.000000 3994.767578 0.000000 0.943971 0.000000 0.330028 1.000000 1.000000 1.000000
210.501129 0.000000 3969.069824 0.000000 0.934785 0.000000 0.355214 1.000000 1.000000 1.000000
231.278336 0.000000 3947.554443 0.000000 0.145620 0.000000 0.989341 1.000000 1.000000 1.000000
246.235001 0.000000 3930.658691 0.000000 -0.974335 0.000000 -0.225104 1.000000 1.000000 1.000000
223.682907 0.000000 3899.934570 0.000000 0.355375 0.000000 0.934724 1.000000 1.000000 1.000000
202.016266 0.000000 3848.476074 0.000000 0.830079 0.000000 0.557645 1.000000 1.000000 1.000000
293.533081 0.000000 3952.304932 0.000000 -0.505025 0.000000 0.863105 1.000000 1.000000 1.000000
518.054199 0.000000 3855.707520 0.000000 -0.268478 0.000000 0.963286 1.000000 1.000000 1.000000
438.197968 0.000000 3810.395264 0.000000 0.030761 0.000000 0.999527 1.000000 1.000000 1.000000
366.813385 0.000000 3790.474121 0.000000 0.090752 0.000000 0.995873 1.000000 1.000000 1.000000
238.461472 0.000000 1236.276733 0.000000 0.831590 0.000000 0.555390 1.000000 1.000000 1.000000
159.190048 0.000000 1197.268799 0.000000 0.332133 0.000000 0.943233 1.000000 1.000000 1.000000
137.605774 0.000000 1228.672974 0.000000 -0.513094 0.000000 0.858332 1.000000 1.000000 1.000000
"}
