﻿object={
	name="lakes"
	render_pass=Map
	clamp_to_water_level=no
	generated_content=no
	layer="lake_layer"
	pdxmesh="lake_mesh"
	count=22
	transform="317.932983 0.895508 3836.497070 0.000000 0.994212 0.000000 0.107439 11.618054 11.618054 11.618054
3306.611816 -0.276123 440.064423 0.000000 0.174036 0.000000 0.984739 13.830501 13.830501 13.830501
2304.603760 3.931397 2347.552246 0.000000 0.000000 0.000000 1.000000 42.072578 42.072578 42.072578
2157.214844 2.673584 2764.880859 0.000000 0.444487 0.000000 0.895785 151.158508 151.158508 151.158508
1792.195923 0.589600 3876.700928 0.000000 0.000000 0.000000 1.000000 67.231117 67.231117 67.231117
2879.373291 1.711182 1765.794678 0.000000 -0.299820 0.000000 0.953996 26.383581 26.383581 26.383581
2908.965088 0.699341 1922.919922 0.000000 -0.950863 0.000000 0.309611 57.565575 57.565575 57.565575
3116.390869 2.762451 1831.453491 0.000000 -0.135326 0.000000 0.990801 32.238354 32.238354 32.238354
3148.902100 4.131836 2140.707520 0.000000 0.000000 0.000000 1.000000 87.410583 87.410583 87.410583
4825.885254 0.000000 1212.191406 0.000000 0.000000 0.000000 1.000000 1.000000 1.000000 1.000000
1541.944824 1.786621 2303.212402 0.000000 0.318496 0.000000 0.947924 34.850918 34.850918 34.850918
1621.380615 0.000000 3147.413818 0.000000 0.000000 0.000000 1.000000 49.842056 49.842056 49.842056
1637.548096 0.418213 3127.715820 0.000000 0.000000 0.000000 1.000000 61.777794 61.777794 61.777794
1729.482788 1.885010 3075.696533 0.000000 -0.817564 0.000000 0.575837 58.389778 58.389778 58.389778
1834.852417 0.818848 3061.019287 0.000000 0.000000 0.000000 1.000000 64.972412 64.972412 64.972412
1984.184937 1.614746 3048.103027 0.000000 0.365875 0.000000 0.930664 99.045166 99.045166 99.045166
2117.906250 1.250244 2920.658691 0.000000 0.116980 0.000000 0.993134 103.046593 103.046593 103.046593
1980.092896 0.971436 2443.462402 0.000000 0.000000 0.000000 1.000000 102.469025 102.469025 102.469025
2146.333496 2.615967 2458.984619 0.000000 0.000000 0.000000 1.000000 90.799080 90.799080 90.799080
2351.362793 -1.437256 2537.996826 0.000000 -0.480844 0.000000 0.876806 205.998856 205.998856 205.998856
2957.389160 0.708008 2917.422119 0.000000 0.000000 0.000000 1.000000 211.903656 211.903656 211.903656
2049.596680 0.711670 3070.546143 0.000000 0.000000 0.000000 1.000000 50.640789 50.640789 50.640789
"}
